{
  "$schema": "https://themost-framework.github.io/themost/models/2018/2/schema.json",
  "@id": "https://universis.io/schemas/Account",
  "name": "Account",
  "title": "Accounts",
  "inherits": "Thing",
  "hidden": false,
  "sealed": false,
  "abstract": false,
  "version": "1.2",
  "fields": [
    {
      "name": "id",
      "title": "Id",
      "description": "The identifier of the item.",
      "type": "Integer",
      "nullable": false,
      "primary": true
    },
    {
      "name": "accountType",
      "title": "Account Type",
      "description": "Contains a set of flags that define the type and scope of an account object.",
      "type": "Integer",
      "readonly": false
    }
  ],
  "constraints": [
    {
      "description": "Account name must be unique across different records.",
      "type": "unique",
      "fields": [
        "name"
      ]
    }
  ],
  "privileges": [
    {
      "mask": 15,
      "type": "global"
    },
    {
      "mask": 15,
      "type": "global",
      "account": "Administrators"
    },
    {
      "mask": 1,
      "type": "self",
      "filter": "id eq me()"
    }
  ]
}
