{
  "$schema": "https://themost-framework.github.io/themost/models/2018/2/schema.json",
  "@id": "https://universis.io/schemas/CalculateRuleType",
  "name": "CalculateRuleType",
  "title": "Calculate rule types",
  "description": "Τρόποι υπολογισμού πτυχίου",
  "hidden": false,
  "sealed": false,
  "abstract": false,
  "caching": "always",
  "implements": "Enumeration",
  "category": "lookup",
  "version": "1.0",
  "fields": [
    {
      "name": "id",
      "title": "Id",
      "type": "Counter",
      "nullable": false,
      "primary": true
    },
    {
      "@id": "http://schema.org/alternateName",
      "name": "alternateName",
      "title": "alternateName",
      "description": "An alias for the item.",
      "type": "Text"
    }
  ],
  "privileges": [
    {
      "mask": 1,
      "type": "global",
      "account": "*"
    },
    {
      "mask": 15,
      "type": "global"
    },
    {
      "mask": 15,
      "type": "global",
      "account": "Administrators"
    }
  ],
  "constraints": [
    {
      "type": "unique",
      "description": "Alternate name must be unique across different records",
      "fields": [
        "alternateName"
      ]
    },
    {
      "type": "unique",
      "description": "Name must be unique across different records",
      "fields": [
        "name"
      ]
    }
  ],
  "seed": [
    {
      "alternateName": "CourseType",
      "name": "Τύποι μαθημάτων",
      "identifier": 5,
      "description": "Τύποι μαθημάτων"
    },
    {
      "alternateName": "StudentThesis",
      "name": "Εργασία",
      "identifier": 6,
      "description": "Εργασία"
    },
    {
      "alternateName": "Semester",
      "name": "Εξάμηνα",
      "identifier": 9,
      "description": "Εξάμηνα"
    },
    {
      "alternateName": "CourseCategory",
      "name": "Κατηγορία μαθήματος",
      "identifier": 15,
      "description": "Κατηγορία μαθήματος"
    }
  ],
  "eventListeners": [
    {
      "name": "Lookup Cache Listener",
      "type": "./listeners/lookup-cache-listener.js"
    }
  ]
}
