{
  "$schema": "https://themost-framework.github.io/themost/models/2018/2/schema.json",
  "@id": "https://universis.io/schemas/Rule",
  "name": "CalculationRule",
  "title": "Graduation calculation rules",
  "hidden": false,
  "sealed": false,
  "version": "0.2",
  "source": "CalculationRuleBase",
  "view": "CalculationRuleData",
  "fields": [
    {
      "name": "id",
      "title": "Id",
      "description": "Id",
      "type": "Integer",
      "nullable": false,
      "primary": true,
      "value": "javascript:return this.newid();"
    },
    {
      "name": "studyProgram",
      "title": "Πρόγραμμα σπουδών",
      "description": "Το πρόγραμμα σπουδών που ακολουθεί ο φοιτητής.",
      "type": "StudyProgram",
      "nullable": false
    },
    {
      "name": "ruleType",
      "title": "Τρόπος υπολογισμού",
      "type": "CalculateRuleType",
      "nullable": false,
      "mapping": {
        "parentModel": "CalculateRuleType",
        "childModel": "CalculationRule",
        "parentField": "identifier",
        "childField": "ruleType",
        "associationType": "association"
      }
    },
    {
      "name": "checkValues",
      "title": "The values to check",
      "description": "The values to check",
      "type": "Text"
    },
    {
      "name": "coefficient",
      "title": "Συντελεστής πτυχίου",
      "description": "Συντελεστής πτυχίου",
      "type": "Number",
      "nullable": false,
      "size": 4
    }
  ],
  "privileges": [
    {
      "mask": 1,
      "type": "global",
      "account": "*"
    },
    {
      "mask": 15,
      "type": "global"
    },
    {
      "mask": 15,
      "type": "global",
      "account": "Administrators"
    },
    {
      "mask": 15,
      "type": "self",
      "account": "Registrar",
      "filter": "studyProgram/department eq departments()"
    }
  ]
}
