{
    "$schema": "https://themost-framework.github.io/themost/models/2018/2/schema.json",
    "@id": "http://schema.org/Intangible",
    "name": "Intangible",
    "description": "A utility class that serves as the umbrella for a number of 'intangible' things such as quantities, structured values, etc.",
    "title": "Intangible",
    "abstract": true,
    "sealed": false,
    "implements": "Thing",
    "version": "1.0",
    "fields": [
        {
            "@id": "http://schema.org/additionalType",
            "name": "additionalType",
            "title": "additionalType",
            "description": "An additional type for the item, typically used for adding more specific types.",
            "type": "Text",
            "value": "javascript:return this.model.name;"
        }
    ],
    "privileges": [
        {
            "mask": 15,
            "type": "global"
        },
        {
            "mask": 15,
            "type": "global",
            "account": "Administrators"
        }
    ],
    "hidden": true
}
