{
    "$schema": "https://themost-framework.github.io/themost/models/2018/2/schema.json",
    "@id": "http://schema.org/SoftwareApplication",
    "name": "SoftwareApplication",
    "description": "A software application.",
    "title": "SoftwareApplication",
    "abstract": false,
    "sealed": false,
    "inherits": "CreativeWork",
    "version": "1.0",
    "fields": [
        {
            "@id": "http://schema.org/alternateName",
            "name": "alternateName",
            "title": "alternateName",
            "description": "An alias for the item.",
            "type": "Text",
            "nullable": false
        },
        {
            "@id": "http://schema.org/downloadUrl",
            "name": "downloadUrl",
            "title": "downloadUrl",
            "description": "If the file can be downloaded, URL to download the binary.",
            "type": "URL"
        },
        {
            "@id": "http://schema.org/softwareRequirements",
            "name": "softwareRequirements",
            "title": "softwareRequirements",
            "description": "Component dependency requirements for application. This includes runtime environments and shared libraries that are not included in the application distribution package, but required to run the application (Examples: DirectX, Java or .NET runtime).",
            "type": "Text",
            "many": false
        },
        {
            "@id": "http://schema.org/processorRequirements",
            "name": "processorRequirements",
            "title": "processorRequirements",
            "description": "Processor architecture required to run the application (e.g. IA64).",
            "type": "Text",
            "many": false
        },
        {
            "@id": "http://schema.org/availableOnDevice",
            "name": "availableOnDevice",
            "title": "availableOnDevice",
            "description": "Device required to run the application. Used in cases where a specific make/model is required to run the application.",
            "type": "Text"
        },
        {
            "@id": "http://schema.org/featureList",
            "name": "featureList",
            "title": "featureList",
            "description": "Features or modules provided by this application (and possibly required by other applications).",
            "type": "Text"
        },
        {
            "@id": "http://schema.org/applicationSubCategory",
            "name": "applicationSubCategory",
            "title": "applicationSubCategory",
            "description": "Subcategory of the application, e.g. 'Arcade Game'.",
            "type": "Text"
        },
        {
            "@id": "http://schema.org/device",
            "name": "device",
            "title": "device",
            "description": "Device required to run the application. Used in cases where a specific make/model is required to run the application.",
            "type": "Text"
        },
        {
            "@id": "http://schema.org/applicationCategory",
            "name": "applicationCategory",
            "title": "applicationCategory",
            "description": "Type of software application, e.g. 'Game, Multimedia'.",
            "type": "Text"
        },
        {
            "@id": "http://schema.org/softwareVersion",
            "name": "softwareVersion",
            "title": "softwareVersion",
            "description": "Version of the software instance.",
            "type": "Text",
            "nullable": false
        },
        {
            "@id": "http://schema.org/storageRequirements",
            "name": "storageRequirements",
            "title": "storageRequirements",
            "description": "Storage requirements (free space required).",
            "type": "Text",
            "many": false
        },
        {
            "@id": "http://schema.org/applicationSuite",
            "name": "applicationSuite",
            "title": "applicationSuite",
            "description": "The name of the application suite to which the application belongs (e.g. Excel belongs to Office).",
            "type": "Text"
        },
        {
            "@id": "http://schema.org/memoryRequirements",
            "name": "memoryRequirements",
            "title": "memoryRequirements",
            "description": "Minimum memory requirements.",
            "type": "Text"
        },
        {
            "@id": "http://schema.org/screenshot",
            "name": "screenshot",
            "title": "screenshot",
            "description": "A link to a screenshot image of the app.",
            "type": "URL"
        },
        {
            "@id": "http://schema.org/softwareAddOn",
            "name": "softwareAddOn",
            "title": "softwareAddOn",
            "description": "Additional content for a software application.",
            "type": "SoftwareApplication",
            "many": true
        },
        {
            "@id": "http://schema.org/releaseNotes",
            "name": "releaseNotes",
            "title": "releaseNotes",
            "description": "Description of what changed in this version.",
            "type": "Text",
            "many": false
        },
        {
            "@id": "http://schema.org/requirements",
            "name": "requirements",
            "title": "requirements",
            "description": "Component dependency requirements for application. This includes runtime environments and shared libraries that are not included in the application distribution package, but required to run the application (Examples: DirectX, Java or .NET runtime).",
            "type": "Text",
            "many": false
        },
        {
            "@id": "http://schema.org/operatingSystem",
            "name": "operatingSystem",
            "title": "operatingSystem",
            "description": "Operating systems supported (Windows 7, OSX 10.6, Android 1.6).",
            "type": "Text"
        },
        {
            "@id": "http://schema.org/fileSize",
            "name": "fileSize",
            "title": "fileSize",
            "description": "Size of the application / package (e.g. 18MB). In the absence of a unit (MB, KB etc.), KB will be assumed.",
            "type": "Text"
        },
        {
            "@id": "http://schema.org/installUrl",
            "name": "installUrl",
            "title": "installUrl",
            "description": "URL at which the app may be installed, if different from the URL of the item.",
            "type": "URL"
        }
    ],
    "constraints": [
        {
            "type": "unique",
            "fields": [
                "alternateName",
                "softwareVersion"
            ]
        }
    ],
    "privileges": [
        {
            "mask": 15,
            "type": "global"
        },
        {
            "mask": 15,
            "type": "global",
            "account": "Administrators"
        }
    ]
}