{
    "$schema": "https://themost-framework.github.io/themost/models/2018/2/schema.json",
    "@id": "https://universis.io/schemas/StudyProgramCourse",
    "name": "StudyProgramCourse",
    "title": "StudyProgramCourses",
    "sealed": false,
    "version": "1.0",
    "fields": [
        {
            "name": "id",
            "@id": "https://themost.io/schemas/id",
            "title": "ID",
            "description": "The identifier of an item.",
            "type": "Integer",
            "nullable": false,
            "primary": true,
            "value": "javascript:return this.newid();"
        },
        {
            "name": "course",
            "@id": "https://universis.io/schemas/course",
            "title": "Course",
            "description": "A series of lessons or lectures on a particular subject.",
            "type": "Course",
            "editable": false,
            "nullable": false
        },
        {
            "name": "studyProgram",
            "@id": "https://universis.io/schemas/studyProgram",
            "title": "Program of study",
            "description": "A curriculum of two or more courses that is intended or understood to lead to a degree, diploma, or certificate.",
            "type": "StudyProgram",
            "editable": false,
            "nullable": false
        },
        {
            "name": "programGroup",
            "@id": "https://universis.io/schemas/programGroup",
            "title": "Course group",
            "description": "A collection of courses which is a part of a study program and may have a final grade.",
            "type": "ProgramGroup"
        },
        {
            "name": "programGroupFactor",
            "@id": "https://universis.io/schemas/programGroupFactor",
            "title": "Course group factor",
            "description": "A number which defines the factor that is going to be used to calculate the final grade of a course group.",
            "type": "Number",
            "size": 4
        },
        {
            "name": "sortIndex",
            "@id": "https://universis.io/schemas/sortIndex",
            "title": "Sort Index",
            "description": "A number which defines an optional sort order of a collection of items.",
            "type": "Integer"
        },
        {
            "@id": "http://schema.org/identifier",
            "name": "identifier",
            "title": "identifier",
            "description": "The identifier property represents any kind of identifier for any kind of object.",
            "type": "Guid",
            "readonly": true,
            "value": "javascript:return this.newGuid();"
        },
        {
            "@id": "https://themost.io/schemas/dateModified",
            "name": "dateModified",
            "title": "dateModified",
            "description": "The date on which this item was most recently modified.",
            "type": "DateTime",
            "readonly": true,
            "value": "javascript:return (new Date());",
            "calculation": "javascript:return (new Date());"
        }
    ],
    "constraints": [
        {
            "type": "unique",
            "fields": [
                "course",
                "studyProgram"
            ]
        }
    ],
    "privileges": [
        {
            "mask": 1,
            "type": "global",
            "account": "*"
        },
        {
            "mask": 15,
            "type": "global"
        },
        {
            "mask": 15,
            "type": "global",
            "account": "Administrators"
        },
        {
            "mask": 15,
            "type": "self",
            "account": "Registrar",
            "filter": "studyProgram/department eq departments()"
        }
    ]
}
